…
``` r
dfport <- df %>%
  select(src, port, bytes)
```

``` r
dfportstat <- dfport %>%
  group_by(port) %>%
  summarise(med = median(bytes), max = max(bytes), razn = max - med) %>%
  arrange(desc(razn)) %>% collect()

print(dfportstat)
```

    # A tibble: 46 × 4
        port    med    max    razn
       <int>  <dbl>  <int>   <dbl>
     1    37 30669  209402 178733 
     2    39 30713  198527 167814 
     3   105 30598. 197766 167168.
     4    40 30579  195144 164565 
     5    75 30685  194650 163965 
     6    89 30628  194106 163478 
     7   102 30645  193588 162943 
     8    81 30721  192430 161709 
     9   119 30623  190151 159528 
    10    74 30679  189818 159139 
    # ℹ 36 more rows
…
